{
  "name": "NV",
  "plural": "NV's",
  "base": "PersistedModel",
  "idInjection": true,
  "options": {
    "validateUpsert": true
  },
  "properties": {
    "First_Name": {
      "type": "string",
      "required": true,
      "default": "Naresh"
    },
    "Last_Name": {
      "type": "string",
      "required": true,
      "default": "Vunnam"
    }
  },
  "validations": [],
  "relations": {},
  "acls": [],
  "methods": {}
}
